/tmp/cc3dGFtd.o: In function `main':
atomic-updates-1.c:(.text.startup+0x94): undefined reference to `pthread_create'
atomic-updates-1.c:(.text.startup+0xa7): undefined reference to `pthread_create'
collect2: ld returned 1 exit status
