
http://cloc.sourceforge.net v 1.60  T=0.01 s (157.6 files/s, 2994.5 lines/s)
-------------------------------------------------------------------------------
Language                     files          blank        comment           code
-------------------------------------------------------------------------------
C                                1              1              1             17
-------------------------------------------------------------------------------
