
http://cloc.sourceforge.net v 1.60  T=0.01 s (140.8 files/s, 17037.4 lines/s)
-------------------------------------------------------------------------------
Language                     files          blank        comment           code
-------------------------------------------------------------------------------
C                                1             23              1             97
-------------------------------------------------------------------------------
