/home/cfuria/misc/rosetta/RosettaCodeData/Task/Same-Fringe/C/same-fringe.c.compile/same-fringe.c: In function ‘co_new’:
/home/cfuria/misc/rosetta/RosettaCodeData/Task/Same-Fringe/C/same-fringe.c.compile/same-fringe.c:20:32: warning: cast from pointer to integer of different size [-Wpointer-to-int-cast]
/home/cfuria/misc/rosetta/RosettaCodeData/Task/Same-Fringe/C/same-fringe.c.compile/same-fringe.c: In function ‘tree_trav’:
/home/cfuria/misc/rosetta/RosettaCodeData/Task/Same-Fringe/C/same-fringe.c.compile/same-fringe.c:71:12: warning: cast to pointer from integer of different size [-Wint-to-pointer-cast]
