/home/cfuria/misc/rosetta/RosettaCodeData/Task/Perfect-numbers/C/perfect-numbers-2.c.compile/perfect-numbers-2.c: In function ‘main’:
/home/cfuria/misc/rosetta/RosettaCodeData/Task/Perfect-numbers/C/perfect-numbers-2.c.compile/perfect-numbers-2.c:4:2: error: unknown type name ‘ulong’
/home/cfuria/misc/rosetta/RosettaCodeData/Task/Perfect-numbers/C/perfect-numbers-2.c.compile/perfect-numbers-2.c:6:2: warning: implicit declaration of function ‘sieve’ [-Wimplicit-function-declaration]
/home/cfuria/misc/rosetta/RosettaCodeData/Task/Perfect-numbers/C/perfect-numbers-2.c.compile/perfect-numbers-2.c:9:3: warning: implicit declaration of function ‘get_factors’ [-Wimplicit-function-declaration]
/home/cfuria/misc/rosetta/RosettaCodeData/Task/Perfect-numbers/C/perfect-numbers-2.c.compile/perfect-numbers-2.c:11:3: warning: implicit declaration of function ‘printf’ [-Wimplicit-function-declaration]
/home/cfuria/misc/rosetta/RosettaCodeData/Task/Perfect-numbers/C/perfect-numbers-2.c.compile/perfect-numbers-2.c:11:17: warning: incompatible implicit declaration of built-in function ‘printf’ [enabled by default]
/home/cfuria/misc/rosetta/RosettaCodeData/Task/Perfect-numbers/C/perfect-numbers-2.c.compile/perfect-numbers-2.c:11:3: warning: format ‘%lu’ expects argument of type ‘long unsigned int’, but argument 2 has type ‘int’ [-Wformat]
