
http://cloc.sourceforge.net v 1.60  T=0.01 s (160.4 files/s, 1443.7 lines/s)
-------------------------------------------------------------------------------
Language                     files          blank        comment           code
-------------------------------------------------------------------------------
C                                1              1              0              8
-------------------------------------------------------------------------------
