
http://cloc.sourceforge.net v 1.60  T=0.01 s (153.8 files/s, 4460.2 lines/s)
-------------------------------------------------------------------------------
Language                     files          blank        comment           code
-------------------------------------------------------------------------------
C                                1              3              1             25
-------------------------------------------------------------------------------
