/home/cfuria/misc/rosetta/RosettaCodeData/Task/Integer-sequence/C/integer-sequence-3.c.compile/integer-sequence-3.c: In function ‘fail’:
/home/cfuria/misc/rosetta/RosettaCodeData/Task/Integer-sequence/C/integer-sequence-3.c.compile/integer-sequence-3.c:8:2: warning: format ‘%s’ expects argument of type ‘char *’, but argument 3 has type ‘long unsigned int’ [-Wformat]
/home/cfuria/misc/rosetta/RosettaCodeData/Task/Integer-sequence/C/integer-sequence-3.c.compile/integer-sequence-3.c:8:2: warning: format ‘%lx’ expects a matching ‘long unsigned int’ argument [-Wformat]
