
http://cloc.sourceforge.net v 1.60  T=0.01 s (146.6 files/s, 11433.8 lines/s)
-------------------------------------------------------------------------------
Language                     files          blank        comment           code
-------------------------------------------------------------------------------
C                                1             13              8             57
-------------------------------------------------------------------------------
