/home/cfuria/misc/rosetta/RosettaCodeData/Task/Longest-common-subsequence/C/longest-common-subsequence-2.c.compile/longest-common-subsequence-2.c: In function ‘main’:
/home/cfuria/misc/rosetta/RosettaCodeData/Task/Longest-common-subsequence/C/longest-common-subsequence-2.c.compile/longest-common-subsequence-2.c:3:5: warning: implicit declaration of function ‘printf’ [-Wimplicit-function-declaration]
/home/cfuria/misc/rosetta/RosettaCodeData/Task/Longest-common-subsequence/C/longest-common-subsequence-2.c.compile/longest-common-subsequence-2.c:3:5: warning: incompatible implicit declaration of built-in function ‘printf’ [enabled by default]
/home/cfuria/misc/rosetta/RosettaCodeData/Task/Longest-common-subsequence/C/longest-common-subsequence-2.c.compile/longest-common-subsequence-2.c:3:5: warning: implicit declaration of function ‘lcs’ [-Wimplicit-function-declaration]
/home/cfuria/misc/rosetta/RosettaCodeData/Task/Longest-common-subsequence/C/longest-common-subsequence-2.c.compile/longest-common-subsequence-2.c:3:5: warning: format ‘%s’ expects argument of type ‘char *’, but argument 2 has type ‘int’ [-Wformat]
/tmp/ccYZ0At7.o: In function `main':
longest-common-subsequence-2.c:(.text.startup+0x11): undefined reference to `lcs'
collect2: ld returned 1 exit status
