
http://cloc.sourceforge.net v 1.60  T=0.01 s (158.4 files/s, 2533.7 lines/s)
-------------------------------------------------------------------------------
Language                     files          blank        comment           code
-------------------------------------------------------------------------------
C                                1              2              0             14
-------------------------------------------------------------------------------
