
http://cloc.sourceforge.net v 1.60  T=0.01 s (129.2 files/s, 23376.3 lines/s)
-------------------------------------------------------------------------------
Language                     files          blank        comment           code
-------------------------------------------------------------------------------
C                                1             32              1            148
-------------------------------------------------------------------------------
