
http://cloc.sourceforge.net v 1.60  T=0.01 s (157.3 files/s, 5033.1 lines/s)
-------------------------------------------------------------------------------
Language                     files          blank        comment           code
-------------------------------------------------------------------------------
C                                1              8              0             24
-------------------------------------------------------------------------------
