
http://cloc.sourceforge.net v 1.60  T=0.01 s (155.6 files/s, 4979.0 lines/s)
-------------------------------------------------------------------------------
Language                     files          blank        comment           code
-------------------------------------------------------------------------------
C                                1              5              0             27
-------------------------------------------------------------------------------
