
http://cloc.sourceforge.net v 1.60  T=0.01 s (123.8 files/s, 16584.1 lines/s)
-------------------------------------------------------------------------------
Language                     files          blank        comment           code
-------------------------------------------------------------------------------
C                                1             16              4            114
-------------------------------------------------------------------------------
