
http://cloc.sourceforge.net v 1.60  T=0.01 s (155.4 files/s, 5128.3 lines/s)
-------------------------------------------------------------------------------
Language                     files          blank        comment           code
-------------------------------------------------------------------------------
C                                1              9              2             22
-------------------------------------------------------------------------------
