
http://cloc.sourceforge.net v 1.60  T=0.01 s (147.5 files/s, 12245.5 lines/s)
-------------------------------------------------------------------------------
Language                     files          blank        comment           code
-------------------------------------------------------------------------------
C                                1             14              6             63
-------------------------------------------------------------------------------
