
http://cloc.sourceforge.net v 1.60  T=0.01 s (149.2 files/s, 10147.8 lines/s)
-------------------------------------------------------------------------------
Language                     files          blank        comment           code
-------------------------------------------------------------------------------
C                                1             14              2             52
-------------------------------------------------------------------------------
