
http://cloc.sourceforge.net v 1.60  T=0.01 s (155.8 files/s, 4673.7 lines/s)
-------------------------------------------------------------------------------
Language                     files          blank        comment           code
-------------------------------------------------------------------------------
C                                1              5              0             25
-------------------------------------------------------------------------------
