
http://cloc.sourceforge.net v 1.60  T=0.01 s (135.1 files/s, 7293.3 lines/s)
-------------------------------------------------------------------------------
Language                     files          blank        comment           code
-------------------------------------------------------------------------------
C                                1              8              1             45
-------------------------------------------------------------------------------
