
http://cloc.sourceforge.net v 1.60  T=0.01 s (152.3 files/s, 7308.2 lines/s)
-------------------------------------------------------------------------------
Language                     files          blank        comment           code
-------------------------------------------------------------------------------
C                                1              5              0             43
-------------------------------------------------------------------------------
