
http://cloc.sourceforge.net v 1.60  T=0.01 s (157.9 files/s, 3000.2 lines/s)
-------------------------------------------------------------------------------
Language                     files          blank        comment           code
-------------------------------------------------------------------------------
C                                1              1              0             18
-------------------------------------------------------------------------------
