
http://cloc.sourceforge.net v 1.60  T=0.01 s (157.4 files/s, 3777.8 lines/s)
-------------------------------------------------------------------------------
Language                     files          blank        comment           code
-------------------------------------------------------------------------------
C                                1              4              3             17
-------------------------------------------------------------------------------
