/home/cfuria/misc/rosetta/RosettaCodeData/Task/Forward-difference/C/forward-difference-2.c.compile/forward-difference-2.c: In function ‘binomCoeff’:
/home/cfuria/misc/rosetta/RosettaCodeData/Task/Forward-difference/C/forward-difference-2.c.compile/forward-difference-2.c:4:15: warning: incompatible implicit declaration of built-in function ‘calloc’ [enabled by default]
/home/cfuria/misc/rosetta/RosettaCodeData/Task/Forward-difference/C/forward-difference-2.c.compile/forward-difference-2.c: In function ‘main’:
/home/cfuria/misc/rosetta/RosettaCodeData/Task/Forward-difference/C/forward-difference-2.c.compile/forward-difference-2.c:27:5: warning: incompatible implicit declaration of built-in function ‘free’ [enabled by default]
