
http://cloc.sourceforge.net v 1.60  T=0.01 s (132.9 files/s, 20738.9 lines/s)
-------------------------------------------------------------------------------
Language                     files          blank        comment           code
-------------------------------------------------------------------------------
C                                1             15              6            135
-------------------------------------------------------------------------------
