
http://cloc.sourceforge.net v 1.60  T=0.01 s (152.8 files/s, 6723.6 lines/s)
-------------------------------------------------------------------------------
Language                     files          blank        comment           code
-------------------------------------------------------------------------------
C                                1              8              0             36
-------------------------------------------------------------------------------
