
http://cloc.sourceforge.net v 1.60  T=0.01 s (142.6 files/s, 15119.2 lines/s)
-------------------------------------------------------------------------------
Language                     files          blank        comment           code
-------------------------------------------------------------------------------
C                                1             21             22             63
-------------------------------------------------------------------------------
