
http://cloc.sourceforge.net v 1.60  T=0.01 s (143.2 files/s, 14322.4 lines/s)
-------------------------------------------------------------------------------
Language                     files          blank        comment           code
-------------------------------------------------------------------------------
C                                1             17             16             67
-------------------------------------------------------------------------------
