
http://cloc.sourceforge.net v 1.60  T=0.01 s (138.6 files/s, 17879.4 lines/s)
-------------------------------------------------------------------------------
Language                     files          blank        comment           code
-------------------------------------------------------------------------------
C                                1             19              1            109
-------------------------------------------------------------------------------
