/tmp/cco38CFY.o: In function `main':
first-class-functions-2.c:(.text.startup+0x8): undefined reference to `cbrt'
first-class-functions-2.c:(.text.startup+0x26): undefined reference to `exp'
first-class-functions-2.c:(.text.startup+0x2f): undefined reference to `sin'
first-class-functions-2.c:(.text.startup+0x38): undefined reference to `cbrt'
first-class-functions-2.c:(.text.startup+0x41): undefined reference to `log'
first-class-functions-2.c:(.text.startup+0x4a): undefined reference to `asin'
collect2: ld returned 1 exit status
