
http://cloc.sourceforge.net v 1.60  T=0.01 s (129.1 files/s, 24648.8 lines/s)
-------------------------------------------------------------------------------
Language                     files          blank        comment           code
-------------------------------------------------------------------------------
C                                1             31              0            160
-------------------------------------------------------------------------------
