
http://cloc.sourceforge.net v 1.60  T=0.01 s (156.4 files/s, 4846.9 lines/s)
-------------------------------------------------------------------------------
Language                     files          blank        comment           code
-------------------------------------------------------------------------------
C                                1              7              0             24
-------------------------------------------------------------------------------
