
http://cloc.sourceforge.net v 1.60  T=0.01 s (130.3 files/s, 11856.4 lines/s)
-------------------------------------------------------------------------------
Language                     files          blank        comment           code
-------------------------------------------------------------------------------
C                                1             14             25             52
-------------------------------------------------------------------------------
