
http://cloc.sourceforge.net v 1.60  T=0.01 s (155.9 files/s, 4832.5 lines/s)
-------------------------------------------------------------------------------
Language                     files          blank        comment           code
-------------------------------------------------------------------------------
C                                1              5              0             26
-------------------------------------------------------------------------------
