
http://cloc.sourceforge.net v 1.60  T=0.01 s (152.3 files/s, 7159.1 lines/s)
-------------------------------------------------------------------------------
Language                     files          blank        comment           code
-------------------------------------------------------------------------------
C                                1             10              0             37
-------------------------------------------------------------------------------
