
http://cloc.sourceforge.net v 1.60  T=0.01 s (150.4 files/s, 7818.5 lines/s)
-------------------------------------------------------------------------------
Language                     files          blank        comment           code
-------------------------------------------------------------------------------
C                                1              8              3             41
-------------------------------------------------------------------------------
