
http://cloc.sourceforge.net v 1.60  T=0.01 s (152.7 files/s, 7786.2 lines/s)
-------------------------------------------------------------------------------
Language                     files          blank        comment           code
-------------------------------------------------------------------------------
C                                1              8              3             40
-------------------------------------------------------------------------------
