/home/cfuria/misc/rosetta/RosettaCodeData/Task/LZW-compression/C/lzw-compression.c.compile/lzw-compression.c: In function ‘main’:
/home/cfuria/misc/rosetta/RosettaCodeData/Task/LZW-compression/C/lzw-compression.c.compile/lzw-compression.c:236:2: warning: format ‘%d’ expects argument of type ‘int’, but argument 2 has type ‘size_t’ [-Wformat]
/home/cfuria/misc/rosetta/RosettaCodeData/Task/LZW-compression/C/lzw-compression.c.compile/lzw-compression.c:239:2: warning: format ‘%d’ expects argument of type ‘int’, but argument 2 has type ‘size_t’ [-Wformat]
/home/cfuria/misc/rosetta/RosettaCodeData/Task/LZW-compression/C/lzw-compression.c.compile/lzw-compression.c:242:2: warning: format ‘%d’ expects argument of type ‘int’, but argument 2 has type ‘size_t’ [-Wformat]
/home/cfuria/misc/rosetta/RosettaCodeData/Task/LZW-compression/C/lzw-compression.c.compile/lzw-compression.c:232:6: warning: ignoring return value of ‘read’, declared with attribute warn_unused_result [-Wunused-result]
