
http://cloc.sourceforge.net v 1.60  T=0.01 s (147.8 files/s, 10496.8 lines/s)
-------------------------------------------------------------------------------
Language                     files          blank        comment           code
-------------------------------------------------------------------------------
C                                1             14              3             54
-------------------------------------------------------------------------------
