
http://cloc.sourceforge.net v 1.60  T=0.01 s (155.0 files/s, 5425.6 lines/s)
-------------------------------------------------------------------------------
Language                     files          blank        comment           code
-------------------------------------------------------------------------------
C                                1              6              0             29
-------------------------------------------------------------------------------
