
http://cloc.sourceforge.net v 1.60  T=0.01 s (153.2 files/s, 7046.7 lines/s)
-------------------------------------------------------------------------------
Language                     files          blank        comment           code
-------------------------------------------------------------------------------
C                                1              8              3             35
-------------------------------------------------------------------------------
