/home/cfuria/misc/rosetta/RosettaCodeData/Task/A+B/C/a+b-2.c.compile/a+b-2.c: In function ‘main’:
/home/cfuria/misc/rosetta/RosettaCodeData/Task/A+B/C/a+b-2.c.compile/a+b-2.c:6:11: warning: ignoring return value of ‘freopen’, declared with attribute warn_unused_result [-Wunused-result]
/home/cfuria/misc/rosetta/RosettaCodeData/Task/A+B/C/a+b-2.c.compile/a+b-2.c:7:11: warning: ignoring return value of ‘freopen’, declared with attribute warn_unused_result [-Wunused-result]
/home/cfuria/misc/rosetta/RosettaCodeData/Task/A+B/C/a+b-2.c.compile/a+b-2.c:9:9: warning: ignoring return value of ‘scanf’, declared with attribute warn_unused_result [-Wunused-result]
