
http://cloc.sourceforge.net v 1.60  T=0.01 s (158.8 files/s, 2064.8 lines/s)
-------------------------------------------------------------------------------
Language                     files          blank        comment           code
-------------------------------------------------------------------------------
C                                1              0              1             12
-------------------------------------------------------------------------------
