
http://cloc.sourceforge.net v 1.60  T=0.01 s (145.9 files/s, 12695.0 lines/s)
-------------------------------------------------------------------------------
Language                     files          blank        comment           code
-------------------------------------------------------------------------------
C                                1             22              0             65
-------------------------------------------------------------------------------
