
http://cloc.sourceforge.net v 1.60  T=0.01 s (147.0 files/s, 12202.1 lines/s)
-------------------------------------------------------------------------------
Language                     files          blank        comment           code
-------------------------------------------------------------------------------
C                                1             22              0             61
-------------------------------------------------------------------------------
