
http://cloc.sourceforge.net v 1.60  T=0.01 s (134.6 files/s, 19784.5 lines/s)
-------------------------------------------------------------------------------
Language                     files          blank        comment           code
-------------------------------------------------------------------------------
C                                1             15             17            115
-------------------------------------------------------------------------------
