
http://cloc.sourceforge.net v 1.60  T=0.01 s (153.0 files/s, 6884.9 lines/s)
-------------------------------------------------------------------------------
Language                     files          blank        comment           code
-------------------------------------------------------------------------------
C                                1              9              0             36
-------------------------------------------------------------------------------
