
http://cloc.sourceforge.net v 1.60  T=0.01 s (153.5 files/s, 5066.9 lines/s)
-------------------------------------------------------------------------------
Language                     files          blank        comment           code
-------------------------------------------------------------------------------
C                                1              3              4             26
-------------------------------------------------------------------------------
