
http://cloc.sourceforge.net v 1.60  T=0.01 s (157.5 files/s, 2835.5 lines/s)
-------------------------------------------------------------------------------
Language                     files          blank        comment           code
-------------------------------------------------------------------------------
C                                1              2              0             16
-------------------------------------------------------------------------------
