
http://cloc.sourceforge.net v 1.60  T=0.01 s (157.4 files/s, 2990.2 lines/s)
-------------------------------------------------------------------------------
Language                     files          blank        comment           code
-------------------------------------------------------------------------------
C                                1              3              0             16
-------------------------------------------------------------------------------
