
http://cloc.sourceforge.net v 1.60  T=0.01 s (150.1 files/s, 9003.6 lines/s)
-------------------------------------------------------------------------------
Language                     files          blank        comment           code
-------------------------------------------------------------------------------
C                                1              6              0             54
-------------------------------------------------------------------------------
