
http://cloc.sourceforge.net v 1.60  T=0.01 s (153.5 files/s, 7216.5 lines/s)
-------------------------------------------------------------------------------
Language                     files          blank        comment           code
-------------------------------------------------------------------------------
C                                1              9              0             38
-------------------------------------------------------------------------------
