
http://cloc.sourceforge.net v 1.60  T=0.01 s (151.8 files/s, 7591.8 lines/s)
-------------------------------------------------------------------------------
Language                     files          blank        comment           code
-------------------------------------------------------------------------------
C                                1              4              0             46
-------------------------------------------------------------------------------
