
http://cloc.sourceforge.net v 1.60  T=0.01 s (158.3 files/s, 3482.2 lines/s)
-------------------------------------------------------------------------------
Language                     files          blank        comment           code
-------------------------------------------------------------------------------
C                                1              3              7             12
-------------------------------------------------------------------------------
