/home/cfuria/misc/rosetta/RosettaCodeData/Task/Active-Directory-Search-for-a-user/C/active-directory-search-for-a-user.c.compile/active-directory-search-for-a-user.c:4:1: error: expected identifier or ‘(’ before ‘...’ token
/home/cfuria/misc/rosetta/RosettaCodeData/Task/Active-Directory-Search-for-a-user/C/active-directory-search-for-a-user.c.compile/active-directory-search-for-a-user.c:7:1: warning: data definition has no type or storage class [enabled by default]
/home/cfuria/misc/rosetta/RosettaCodeData/Task/Active-Directory-Search-for-a-user/C/active-directory-search-for-a-user.c.compile/active-directory-search-for-a-user.c:7:1: warning: type defaults to ‘int’ in declaration of ‘ldap_simple_bind_s’ [enabled by default]
/home/cfuria/misc/rosetta/RosettaCodeData/Task/Active-Directory-Search-for-a-user/C/active-directory-search-for-a-user.c.compile/active-directory-search-for-a-user.c:7:1: warning: parameter names (without types) in function declaration [enabled by default]
/home/cfuria/misc/rosetta/RosettaCodeData/Task/Active-Directory-Search-for-a-user/C/active-directory-search-for-a-user.c.compile/active-directory-search-for-a-user.c:10:19: error: expected ‘)’ before string constant
/home/cfuria/misc/rosetta/RosettaCodeData/Task/Active-Directory-Search-for-a-user/C/active-directory-search-for-a-user.c.compile/active-directory-search-for-a-user.c:20:14: error: expected declaration specifiers or ‘...’ before ‘*’ token
/home/cfuria/misc/rosetta/RosettaCodeData/Task/Active-Directory-Search-for-a-user/C/active-directory-search-for-a-user.c.compile/active-directory-search-for-a-user.c:21:1: warning: data definition has no type or storage class [enabled by default]
/home/cfuria/misc/rosetta/RosettaCodeData/Task/Active-Directory-Search-for-a-user/C/active-directory-search-for-a-user.c.compile/active-directory-search-for-a-user.c:21:1: warning: type defaults to ‘int’ in declaration of ‘ldap_unbind’ [enabled by default]
/home/cfuria/misc/rosetta/RosettaCodeData/Task/Active-Directory-Search-for-a-user/C/active-directory-search-for-a-user.c.compile/active-directory-search-for-a-user.c:21:1: warning: parameter names (without types) in function declaration [enabled by default]
