
http://cloc.sourceforge.net v 1.60  T=0.01 s (153.7 files/s, 5686.3 lines/s)
-------------------------------------------------------------------------------
Language                     files          blank        comment           code
-------------------------------------------------------------------------------
C                                1              5              0             32
-------------------------------------------------------------------------------
