
http://cloc.sourceforge.net v 1.60  T=0.01 s (141.5 files/s, 15850.5 lines/s)
-------------------------------------------------------------------------------
Language                     files          blank        comment           code
-------------------------------------------------------------------------------
C                                1             16             21             75
-------------------------------------------------------------------------------
