
http://cloc.sourceforge.net v 1.60  T=0.01 s (142.8 files/s, 14567.0 lines/s)
-------------------------------------------------------------------------------
Language                     files          blank        comment           code
-------------------------------------------------------------------------------
C                                1             19              1             82
-------------------------------------------------------------------------------
