
http://cloc.sourceforge.net v 1.60  T=0.01 s (151.4 files/s, 6055.9 lines/s)
-------------------------------------------------------------------------------
Language                     files          blank        comment           code
-------------------------------------------------------------------------------
C                                1              8             18             14
-------------------------------------------------------------------------------
