
http://cloc.sourceforge.net v 1.60  T=0.01 s (152.9 files/s, 7492.3 lines/s)
-------------------------------------------------------------------------------
Language                     files          blank        comment           code
-------------------------------------------------------------------------------
C                                1              5             12             32
-------------------------------------------------------------------------------
