/home/cfuria/misc/rosetta/RosettaCodeData/Task/Sierpinski-triangle/C/sierpinski-triangle-3.c.compile/sierpinski-triangle-3.c: In function ‘sierpinski_triangle’:
/home/cfuria/misc/rosetta/RosettaCodeData/Task/Sierpinski-triangle/C/sierpinski-triangle-3.c.compile/sierpinski-triangle-3.c:5:3: warning: implicit declaration of function ‘malloc’ [-Wimplicit-function-declaration]
/home/cfuria/misc/rosetta/RosettaCodeData/Task/Sierpinski-triangle/C/sierpinski-triangle-3.c.compile/sierpinski-triangle-3.c:5:13: warning: incompatible implicit declaration of built-in function ‘malloc’ [enabled by default]
/home/cfuria/misc/rosetta/RosettaCodeData/Task/Sierpinski-triangle/C/sierpinski-triangle-3.c.compile/sierpinski-triangle-3.c:7:3: warning: implicit declaration of function ‘memset’ [-Wimplicit-function-declaration]
/home/cfuria/misc/rosetta/RosettaCodeData/Task/Sierpinski-triangle/C/sierpinski-triangle-3.c.compile/sierpinski-triangle-3.c:7:3: warning: incompatible implicit declaration of built-in function ‘memset’ [enabled by default]
/home/cfuria/misc/rosetta/RosettaCodeData/Task/Sierpinski-triangle/C/sierpinski-triangle-3.c.compile/sierpinski-triangle-3.c:11:3: warning: implicit declaration of function ‘printf’ [-Wimplicit-function-declaration]
/home/cfuria/misc/rosetta/RosettaCodeData/Task/Sierpinski-triangle/C/sierpinski-triangle-3.c.compile/sierpinski-triangle-3.c:11:3: warning: incompatible implicit declaration of built-in function ‘printf’ [enabled by default]
/home/cfuria/misc/rosetta/RosettaCodeData/Task/Sierpinski-triangle/C/sierpinski-triangle-3.c.compile/sierpinski-triangle-3.c:13:5: warning: implicit declaration of function ‘rule_90’ [-Wimplicit-function-declaration]
/home/cfuria/misc/rosetta/RosettaCodeData/Task/Sierpinski-triangle/C/sierpinski-triangle-3.c.compile/sierpinski-triangle-3.c:17:3: warning: implicit declaration of function ‘free’ [-Wimplicit-function-declaration]
/home/cfuria/misc/rosetta/RosettaCodeData/Task/Sierpinski-triangle/C/sierpinski-triangle-3.c.compile/sierpinski-triangle-3.c:17:3: warning: incompatible implicit declaration of built-in function ‘free’ [enabled by default]
/usr/lib/gcc/x86_64-linux-gnu/4.6/../../../x86_64-linux-gnu/crt1.o: In function `_start':
(.text+0x20): undefined reference to `main'
/tmp/ccs4kBvT.o: In function `sierpinski_triangle':
sierpinski-triangle-3.c:(.text+0x6a): undefined reference to `rule_90'
collect2: ld returned 1 exit status
