/home/cfuria/misc/rosetta/RosettaCodeData/Task/Sierpinski-triangle/C/sierpinski-triangle-4.c.compile/sierpinski-triangle-4.c: In function ‘main’:
/home/cfuria/misc/rosetta/RosettaCodeData/Task/Sierpinski-triangle/C/sierpinski-triangle-4.c.compile/sierpinski-triangle-4.c:3:3: warning: implicit declaration of function ‘sierpinski_triangle’ [-Wimplicit-function-declaration]
/home/cfuria/misc/rosetta/RosettaCodeData/Task/Sierpinski-triangle/C/sierpinski-triangle-4.c.compile/sierpinski-triangle-4.c:4:10: error: ‘EXIT_SUCCESS’ undeclared (first use in this function)
/home/cfuria/misc/rosetta/RosettaCodeData/Task/Sierpinski-triangle/C/sierpinski-triangle-4.c.compile/sierpinski-triangle-4.c:4:10: note: each undeclared identifier is reported only once for each function it appears in
