
http://cloc.sourceforge.net v 1.60  T=0.01 s (156.0 files/s, 4054.9 lines/s)
-------------------------------------------------------------------------------
Language                     files          blank        comment           code
-------------------------------------------------------------------------------
C                                1              3              0             23
-------------------------------------------------------------------------------
