
http://cloc.sourceforge.net v 1.60  T=0.01 s (160.2 files/s, 2243.2 lines/s)
-------------------------------------------------------------------------------
Language                     files          blank        comment           code
-------------------------------------------------------------------------------
C                                1              2              0             12
-------------------------------------------------------------------------------
