
http://cloc.sourceforge.net v 1.60  T=0.01 s (150.5 files/s, 8276.9 lines/s)
-------------------------------------------------------------------------------
Language                     files          blank        comment           code
-------------------------------------------------------------------------------
C                                1              9              5             41
-------------------------------------------------------------------------------
