
http://cloc.sourceforge.net v 1.60  T=0.01 s (154.9 files/s, 4801.1 lines/s)
-------------------------------------------------------------------------------
Language                     files          blank        comment           code
-------------------------------------------------------------------------------
C                                1              6              0             25
-------------------------------------------------------------------------------
