
http://cloc.sourceforge.net v 1.60  T=0.01 s (155.5 files/s, 4665.5 lines/s)
-------------------------------------------------------------------------------
Language                     files          blank        comment           code
-------------------------------------------------------------------------------
C                                1              3              0             27
-------------------------------------------------------------------------------
