
http://cloc.sourceforge.net v 1.60  T=0.01 s (153.6 files/s, 6757.8 lines/s)
-------------------------------------------------------------------------------
Language                     files          blank        comment           code
-------------------------------------------------------------------------------
C                                1              7              0             37
-------------------------------------------------------------------------------
