
http://cloc.sourceforge.net v 1.60  T=0.01 s (149.5 files/s, 10760.8 lines/s)
-------------------------------------------------------------------------------
Language                     files          blank        comment           code
-------------------------------------------------------------------------------
C                                1             15              2             55
-------------------------------------------------------------------------------
