
http://cloc.sourceforge.net v 1.60  T=0.01 s (140.9 files/s, 14370.3 lines/s)
-------------------------------------------------------------------------------
Language                     files          blank        comment           code
-------------------------------------------------------------------------------
C                                1             20              0             82
-------------------------------------------------------------------------------
