
http://cloc.sourceforge.net v 1.60  T=0.01 s (154.8 files/s, 5573.6 lines/s)
-------------------------------------------------------------------------------
Language                     files          blank        comment           code
-------------------------------------------------------------------------------
C                                1              6              0             30
-------------------------------------------------------------------------------
