
http://cloc.sourceforge.net v 1.60  T=0.01 s (142.5 files/s, 2708.1 lines/s)
-------------------------------------------------------------------------------
Language                     files          blank        comment           code
-------------------------------------------------------------------------------
C                                1              5              0             14
-------------------------------------------------------------------------------
