
http://cloc.sourceforge.net v 1.60  T=0.01 s (128.5 files/s, 25192.6 lines/s)
-------------------------------------------------------------------------------
Language                     files          blank        comment           code
-------------------------------------------------------------------------------
C                                1             33              7            156
-------------------------------------------------------------------------------
