
http://cloc.sourceforge.net v 1.60  T=0.01 s (157.5 files/s, 4095.8 lines/s)
-------------------------------------------------------------------------------
Language                     files          blank        comment           code
-------------------------------------------------------------------------------
C                                1              4              0             22
-------------------------------------------------------------------------------
