
http://cloc.sourceforge.net v 1.60  T=0.01 s (160.1 files/s, 1120.9 lines/s)
-------------------------------------------------------------------------------
Language                     files          blank        comment           code
-------------------------------------------------------------------------------
C                                1              1              0              6
-------------------------------------------------------------------------------
