
http://cloc.sourceforge.net v 1.60  T=0.01 s (154.1 files/s, 5548.6 lines/s)
-------------------------------------------------------------------------------
Language                     files          blank        comment           code
-------------------------------------------------------------------------------
C                                1              4              5             27
-------------------------------------------------------------------------------
