
http://cloc.sourceforge.net v 1.60  T=0.01 s (134.8 files/s, 19673.9 lines/s)
-------------------------------------------------------------------------------
Language                     files          blank        comment           code
-------------------------------------------------------------------------------
C                                1             31              4            111
-------------------------------------------------------------------------------
