
http://cloc.sourceforge.net v 1.60  T=0.01 s (144.3 files/s, 12261.9 lines/s)
-------------------------------------------------------------------------------
Language                     files          blank        comment           code
-------------------------------------------------------------------------------
C                                1              7              0             78
-------------------------------------------------------------------------------
