/home/cfuria/misc/rosetta/RosettaCodeData/Task/Truncate-a-file/C/truncate-a-file-2.c.compile/truncate-a-file-2.c:4:1: error: expected identifier or ‘(’ before ‘...’ token
/home/cfuria/misc/rosetta/RosettaCodeData/Task/Truncate-a-file/C/truncate-a-file-2.c.compile/truncate-a-file-2.c:6:1: warning: data definition has no type or storage class [enabled by default]
/home/cfuria/misc/rosetta/RosettaCodeData/Task/Truncate-a-file/C/truncate-a-file-2.c.compile/truncate-a-file-2.c:6:1: warning: type defaults to ‘int’ in declaration of ‘ftruncate’ [enabled by default]
/home/cfuria/misc/rosetta/RosettaCodeData/Task/Truncate-a-file/C/truncate-a-file-2.c.compile/truncate-a-file-2.c:6:1: warning: parameter names (without types) in function declaration [enabled by default]
/home/cfuria/misc/rosetta/RosettaCodeData/Task/Truncate-a-file/C/truncate-a-file-2.c.compile/truncate-a-file-2.c:7:1: error: expected identifier or ‘(’ before ‘...’ token
