/home/cfuria/misc/rosetta/RosettaCodeData/Task/Miller-Rabin-primality-test/C/miller-rabin-primality-test-4.c.compile/miller-rabin-primality-test-4.c:2:1: error: unknown type name ‘size_t’
/home/cfuria/misc/rosetta/RosettaCodeData/Task/Miller-Rabin-primality-test/C/miller-rabin-primality-test-4.c.compile/miller-rabin-primality-test-4.c:2:14: error: unknown type name ‘size_t’
/home/cfuria/misc/rosetta/RosettaCodeData/Task/Miller-Rabin-primality-test/C/miller-rabin-primality-test-4.c.compile/miller-rabin-primality-test-4.c:2:24: error: unknown type name ‘size_t’
/home/cfuria/misc/rosetta/RosettaCodeData/Task/Miller-Rabin-primality-test/C/miller-rabin-primality-test-4.c.compile/miller-rabin-primality-test-4.c:2:34: error: unknown type name ‘size_t’
/home/cfuria/misc/rosetta/RosettaCodeData/Task/Miller-Rabin-primality-test/C/miller-rabin-primality-test-4.c.compile/miller-rabin-primality-test-4.c:18:1: error: unknown type name ‘bool’
/home/cfuria/misc/rosetta/RosettaCodeData/Task/Miller-Rabin-primality-test/C/miller-rabin-primality-test-4.c.compile/miller-rabin-primality-test-4.c:18:14: error: unknown type name ‘size_t’
/home/cfuria/misc/rosetta/RosettaCodeData/Task/Miller-Rabin-primality-test/C/miller-rabin-primality-test-4.c.compile/miller-rabin-primality-test-4.c:18:24: error: unknown type name ‘size_t’
/home/cfuria/misc/rosetta/RosettaCodeData/Task/Miller-Rabin-primality-test/C/miller-rabin-primality-test-4.c.compile/miller-rabin-primality-test-4.c:18:34: error: unknown type name ‘size_t’
/home/cfuria/misc/rosetta/RosettaCodeData/Task/Miller-Rabin-primality-test/C/miller-rabin-primality-test-4.c.compile/miller-rabin-primality-test-4.c:18:44: error: unknown type name ‘size_t’
/home/cfuria/misc/rosetta/RosettaCodeData/Task/Miller-Rabin-primality-test/C/miller-rabin-primality-test-4.c.compile/miller-rabin-primality-test-4.c:45:1: error: unknown type name ‘bool’
/home/cfuria/misc/rosetta/RosettaCodeData/Task/Miller-Rabin-primality-test/C/miller-rabin-primality-test-4.c.compile/miller-rabin-primality-test-4.c:45:18: error: unknown type name ‘size_t’
