
http://cloc.sourceforge.net v 1.60  T=0.01 s (149.0 files/s, 8789.0 lines/s)
-------------------------------------------------------------------------------
Language                     files          blank        comment           code
-------------------------------------------------------------------------------
C                                1             11              0             48
-------------------------------------------------------------------------------
