
http://cloc.sourceforge.net v 1.60  T=0.01 s (157.0 files/s, 3454.2 lines/s)
-------------------------------------------------------------------------------
Language                     files          blank        comment           code
-------------------------------------------------------------------------------
C                                1              4              0             18
-------------------------------------------------------------------------------
