
http://cloc.sourceforge.net v 1.60  T=0.01 s (156.1 files/s, 4994.5 lines/s)
-------------------------------------------------------------------------------
Language                     files          blank        comment           code
-------------------------------------------------------------------------------
C                                1              5              0             27
-------------------------------------------------------------------------------
