/home/cfuria/misc/rosetta/RosettaCodeData/Task/Averages-Simple-moving-average/C/averages-simple-moving-average-2.c.compile/averages-simple-moving-average-2.c: In function ‘main’:
/home/cfuria/misc/rosetta/RosettaCodeData/Task/Averages-Simple-moving-average/C/averages-simple-moving-average-2.c.compile/averages-simple-moving-average-2.c:7:3: error: unknown type name ‘sma_obj_t’
/home/cfuria/misc/rosetta/RosettaCodeData/Task/Averages-Simple-moving-average/C/averages-simple-moving-average-2.c.compile/averages-simple-moving-average-2.c:7:3: warning: implicit declaration of function ‘sma’ [-Wimplicit-function-declaration]
/home/cfuria/misc/rosetta/RosettaCodeData/Task/Averages-Simple-moving-average/C/averages-simple-moving-average-2.c.compile/averages-simple-moving-average-2.c:7:23: error: ‘SMA_NEW’ undeclared (first use in this function)
/home/cfuria/misc/rosetta/RosettaCodeData/Task/Averages-Simple-moving-average/C/averages-simple-moving-average-2.c.compile/averages-simple-moving-average-2.c:7:23: note: each undeclared identifier is reported only once for each function it appears in
/home/cfuria/misc/rosetta/RosettaCodeData/Task/Averages-Simple-moving-average/C/averages-simple-moving-average-2.c.compile/averages-simple-moving-average-2.c:8:3: error: unknown type name ‘sma_obj_t’
/home/cfuria/misc/rosetta/RosettaCodeData/Task/Averages-Simple-moving-average/C/averages-simple-moving-average-2.c.compile/averages-simple-moving-average-2.c:11:5: warning: implicit declaration of function ‘printf’ [-Wimplicit-function-declaration]
/home/cfuria/misc/rosetta/RosettaCodeData/Task/Averages-Simple-moving-average/C/averages-simple-moving-average-2.c.compile/averages-simple-moving-average-2.c:11:5: warning: incompatible implicit declaration of built-in function ‘printf’ [enabled by default]
/home/cfuria/misc/rosetta/RosettaCodeData/Task/Averages-Simple-moving-average/C/averages-simple-moving-average-2.c.compile/averages-simple-moving-average-2.c:12:15: error: ‘SMA_ADD’ undeclared (first use in this function)
/home/cfuria/misc/rosetta/RosettaCodeData/Task/Averages-Simple-moving-average/C/averages-simple-moving-average-2.c.compile/averages-simple-moving-average-2.c:15:7: error: ‘SMA_FREE’ undeclared (first use in this function)
