
http://cloc.sourceforge.net v 1.60  T=0.01 s (137.7 files/s, 17758.5 lines/s)
-------------------------------------------------------------------------------
Language                     files          blank        comment           code
-------------------------------------------------------------------------------
C                                1             16             33             80
-------------------------------------------------------------------------------
