
http://cloc.sourceforge.net v 1.60  T=0.01 s (155.4 files/s, 4351.9 lines/s)
-------------------------------------------------------------------------------
Language                     files          blank        comment           code
-------------------------------------------------------------------------------
C                                1              4              0             24
-------------------------------------------------------------------------------
