
http://cloc.sourceforge.net v 1.60  T=0.01 s (157.3 files/s, 4717.6 lines/s)
-------------------------------------------------------------------------------
Language                     files          blank        comment           code
-------------------------------------------------------------------------------
C                                1             10              0             20
-------------------------------------------------------------------------------
