
http://cloc.sourceforge.net v 1.60  T=0.01 s (143.1 files/s, 1145.1 lines/s)
-------------------------------------------------------------------------------
Language                     files          blank        comment           code
-------------------------------------------------------------------------------
C                                1              1              0              7
-------------------------------------------------------------------------------
