
http://cloc.sourceforge.net v 1.60  T=0.01 s (156.5 files/s, 4852.7 lines/s)
-------------------------------------------------------------------------------
Language                     files          blank        comment           code
-------------------------------------------------------------------------------
C                                1              5              0             26
-------------------------------------------------------------------------------
