/usr/lib/gcc/x86_64-linux-gnu/4.6/../../../x86_64-linux-gnu/crt1.o: In function `_start':
(.text+0x20): undefined reference to `main'
/tmp/ccZCNSuO.o: In function `quaternion_norm':
quaternion-type-1.c:(.text+0x108): undefined reference to `sqrt'
collect2: ld returned 1 exit status
