
http://cloc.sourceforge.net v 1.60  T=0.01 s (133.1 files/s, 25146.7 lines/s)
-------------------------------------------------------------------------------
Language                     files          blank        comment           code
-------------------------------------------------------------------------------
C                                1             47              0            142
-------------------------------------------------------------------------------
