
http://cloc.sourceforge.net v 1.60  T=0.01 s (124.6 files/s, 28154.7 lines/s)
-------------------------------------------------------------------------------
Language                     files          blank        comment           code
-------------------------------------------------------------------------------
C                                1             27              0            199
-------------------------------------------------------------------------------
