
http://cloc.sourceforge.net v 1.60  T=0.01 s (156.6 files/s, 4072.1 lines/s)
-------------------------------------------------------------------------------
Language                     files          blank        comment           code
-------------------------------------------------------------------------------
C                                1              5              2             19
-------------------------------------------------------------------------------
