
http://cloc.sourceforge.net v 1.60  T=0.01 s (140.8 files/s, 3660.4 lines/s)
-------------------------------------------------------------------------------
Language                     files          blank        comment           code
-------------------------------------------------------------------------------
C                                1              7              0             19
-------------------------------------------------------------------------------
