
http://cloc.sourceforge.net v 1.60  T=0.01 s (152.5 files/s, 6862.9 lines/s)
-------------------------------------------------------------------------------
Language                     files          blank        comment           code
-------------------------------------------------------------------------------
C                                1              7              1             37
-------------------------------------------------------------------------------
