
http://cloc.sourceforge.net v 1.60  T=0.01 s (154.4 files/s, 5094.9 lines/s)
-------------------------------------------------------------------------------
Language                     files          blank        comment           code
-------------------------------------------------------------------------------
C                                1              4              4             25
-------------------------------------------------------------------------------
