
http://cloc.sourceforge.net v 1.60  T=0.01 s (153.4 files/s, 6597.2 lines/s)
-------------------------------------------------------------------------------
Language                     files          blank        comment           code
-------------------------------------------------------------------------------
C                                1              9              0             34
-------------------------------------------------------------------------------
