
http://cloc.sourceforge.net v 1.60  T=0.01 s (148.7 files/s, 11003.6 lines/s)
-------------------------------------------------------------------------------
Language                     files          blank        comment           code
-------------------------------------------------------------------------------
C                                1             14              1             59
-------------------------------------------------------------------------------
