
http://cloc.sourceforge.net v 1.60  T=0.01 s (134.1 files/s, 21724.5 lines/s)
-------------------------------------------------------------------------------
Language                     files          blank        comment           code
-------------------------------------------------------------------------------
C                                1             26             31            105
-------------------------------------------------------------------------------
