
http://cloc.sourceforge.net v 1.60  T=0.01 s (133.9 files/s, 21698.1 lines/s)
-------------------------------------------------------------------------------
Language                     files          blank        comment           code
-------------------------------------------------------------------------------
C                                1             29              1            132
-------------------------------------------------------------------------------
