
http://cloc.sourceforge.net v 1.60  T=0.01 s (155.8 files/s, 5297.6 lines/s)
-------------------------------------------------------------------------------
Language                     files          blank        comment           code
-------------------------------------------------------------------------------
C                                1              7              4             23
-------------------------------------------------------------------------------
