
http://cloc.sourceforge.net v 1.60  T=0.01 s (149.4 files/s, 8816.6 lines/s)
-------------------------------------------------------------------------------
Language                     files          blank        comment           code
-------------------------------------------------------------------------------
C                                1              6              8             45
-------------------------------------------------------------------------------
