/home/cfuria/misc/rosetta/RosettaCodeData/Task/Roman-numerals-Encode/C/roman-numerals-encode-2.c.compile/roman-numerals-encode-2.c: In function ‘ToRoman’:
/home/cfuria/misc/rosetta/RosettaCodeData/Task/Roman-numerals-Encode/C/roman-numerals-encode-2.c.compile/roman-numerals-encode-2.c:8:7: warning: implicit declaration of function ‘printf’ [-Wimplicit-function-declaration]
/home/cfuria/misc/rosetta/RosettaCodeData/Task/Roman-numerals-Encode/C/roman-numerals-encode-2.c.compile/roman-numerals-encode-2.c:8:7: warning: incompatible implicit declaration of built-in function ‘printf’ [enabled by default]
/home/cfuria/misc/rosetta/RosettaCodeData/Task/Roman-numerals-Encode/C/roman-numerals-encode-2.c.compile/roman-numerals-encode-2.c:9:14: error: ‘NULL’ undeclared (first use in this function)
/home/cfuria/misc/rosetta/RosettaCodeData/Task/Roman-numerals-Encode/C/roman-numerals-encode-2.c.compile/roman-numerals-encode-2.c:9:14: note: each undeclared identifier is reported only once for each function it appears in
/home/cfuria/misc/rosetta/RosettaCodeData/Task/Roman-numerals-Encode/C/roman-numerals-encode-2.c.compile/roman-numerals-encode-2.c:11:4: warning: implicit declaration of function ‘strlen’ [-Wimplicit-function-declaration]
/home/cfuria/misc/rosetta/RosettaCodeData/Task/Roman-numerals-Encode/C/roman-numerals-encode-2.c.compile/roman-numerals-encode-2.c:11:26: warning: incompatible implicit declaration of built-in function ‘strlen’ [enabled by default]
/home/cfuria/misc/rosetta/RosettaCodeData/Task/Roman-numerals-Encode/C/roman-numerals-encode-2.c.compile/roman-numerals-encode-2.c:18:13: warning: incompatible implicit declaration of built-in function ‘printf’ [enabled by default]
/home/cfuria/misc/rosetta/RosettaCodeData/Task/Roman-numerals-Encode/C/roman-numerals-encode-2.c.compile/roman-numerals-encode-2.c:26:13: warning: incompatible implicit declaration of built-in function ‘printf’ [enabled by default]
