
http://cloc.sourceforge.net v 1.60  T=0.01 s (147.1 files/s, 10736.9 lines/s)
-------------------------------------------------------------------------------
Language                     files          blank        comment           code
-------------------------------------------------------------------------------
C                                1             12              0             61
-------------------------------------------------------------------------------
