
http://cloc.sourceforge.net v 1.60  T=0.01 s (162.8 files/s, 488.4 lines/s)
-------------------------------------------------------------------------------
Language                     files          blank        comment           code
-------------------------------------------------------------------------------
C                                1              0              0              3
-------------------------------------------------------------------------------
