
http://cloc.sourceforge.net v 1.60  T=0.01 s (161.1 files/s, 966.8 lines/s)
-------------------------------------------------------------------------------
Language                     files          blank        comment           code
-------------------------------------------------------------------------------
C                                1              1              0              5
-------------------------------------------------------------------------------
