
http://cloc.sourceforge.net v 1.53  T=0.5 s (2.0 files/s, 100.0 lines/s)
-------------------------------------------------------------------------------
Language                     files          blank        comment           code
-------------------------------------------------------------------------------
C                                1              8              5             37
-------------------------------------------------------------------------------
