
http://cloc.sourceforge.net v 1.60  T=0.01 s (157.4 files/s, 3462.3 lines/s)
-------------------------------------------------------------------------------
Language                     files          blank        comment           code
-------------------------------------------------------------------------------
C                                1              5              0             17
-------------------------------------------------------------------------------
