
http://cloc.sourceforge.net v 1.60  T=0.01 s (156.2 files/s, 4531.2 lines/s)
-------------------------------------------------------------------------------
Language                     files          blank        comment           code
-------------------------------------------------------------------------------
C                                1              4              0             25
-------------------------------------------------------------------------------
