
http://cloc.sourceforge.net v 1.60  T=0.01 s (146.0 files/s, 11240.9 lines/s)
-------------------------------------------------------------------------------
Language                     files          blank        comment           code
-------------------------------------------------------------------------------
C                                1              9              0             68
-------------------------------------------------------------------------------
