/usr/lib/gcc/x86_64-linux-gnu/4.6/../../../x86_64-linux-gnu/crt1.o: In function `_start':
(.text+0x20): undefined reference to `main'
/tmp/cc6SQgzw.o: In function `stat_obj_value':
standard-deviation-1.c:(.text+0xd0): undefined reference to `sqrt'
collect2: ld returned 1 exit status
