
http://cloc.sourceforge.net v 1.60  T=0.01 s (150.1 files/s, 8703.7 lines/s)
-------------------------------------------------------------------------------
Language                     files          blank        comment           code
-------------------------------------------------------------------------------
C                                1              4              0             54
-------------------------------------------------------------------------------
