
http://cloc.sourceforge.net v 1.60  T=0.01 s (120.4 files/s, 28657.2 lines/s)
-------------------------------------------------------------------------------
Language                     files          blank        comment           code
-------------------------------------------------------------------------------
C                                1             26             57            155
-------------------------------------------------------------------------------
