
http://cloc.sourceforge.net v 1.60  T=0.01 s (150.5 files/s, 9780.1 lines/s)
-------------------------------------------------------------------------------
Language                     files          blank        comment           code
-------------------------------------------------------------------------------
C                                1             11              5             49
-------------------------------------------------------------------------------
