
http://cloc.sourceforge.net v 1.60  T=0.01 s (155.7 files/s, 3425.2 lines/s)
-------------------------------------------------------------------------------
Language                     files          blank        comment           code
-------------------------------------------------------------------------------
C                                1              2              0             20
-------------------------------------------------------------------------------
