
http://cloc.sourceforge.net v 1.60  T=0.01 s (151.7 files/s, 7734.4 lines/s)
-------------------------------------------------------------------------------
Language                     files          blank        comment           code
-------------------------------------------------------------------------------
C                                1             13              0             38
-------------------------------------------------------------------------------
