
http://cloc.sourceforge.net v 1.60  T=0.01 s (127.9 files/s, 25972.1 lines/s)
-------------------------------------------------------------------------------
Language                     files          blank        comment           code
-------------------------------------------------------------------------------
C                                1             34              6            163
-------------------------------------------------------------------------------
