
http://cloc.sourceforge.net v 1.60  T=0.01 s (156.5 files/s, 3442.8 lines/s)
-------------------------------------------------------------------------------
Language                     files          blank        comment           code
-------------------------------------------------------------------------------
C                                1              3              0             19
-------------------------------------------------------------------------------
