
http://cloc.sourceforge.net v 1.60  T=0.01 s (129.4 files/s, 23818.8 lines/s)
-------------------------------------------------------------------------------
Language                     files          blank        comment           code
-------------------------------------------------------------------------------
C                                1             34              3            147
-------------------------------------------------------------------------------
