
http://cloc.sourceforge.net v 1.60  T=0.01 s (137.5 files/s, 17594.2 lines/s)
-------------------------------------------------------------------------------
Language                     files          blank        comment           code
-------------------------------------------------------------------------------
C                                1             12              2            114
-------------------------------------------------------------------------------
