
http://cloc.sourceforge.net v 1.60  T=0.01 s (148.3 files/s, 9789.4 lines/s)
-------------------------------------------------------------------------------
Language                     files          blank        comment           code
-------------------------------------------------------------------------------
C                                1             11             10             45
-------------------------------------------------------------------------------
