/home/cfuria/misc/rosetta/RosettaCodeData/Task/Loops-Continue/C/loops-continue.c.compile/loops-continue.c:1:1: error: expected identifier or ‘(’ before ‘for’
/home/cfuria/misc/rosetta/RosettaCodeData/Task/Loops-Continue/C/loops-continue.c.compile/loops-continue.c:1:17: error: expected ‘=’, ‘,’, ‘;’, ‘asm’ or ‘__attribute__’ before ‘<=’ token
/home/cfuria/misc/rosetta/RosettaCodeData/Task/Loops-Continue/C/loops-continue.c.compile/loops-continue.c:1:25: error: expected ‘=’, ‘,’, ‘;’, ‘asm’ or ‘__attribute__’ before ‘++’ token
