
http://cloc.sourceforge.net v 1.60  T=0.01 s (160.7 files/s, 1285.6 lines/s)
-------------------------------------------------------------------------------
Language                     files          blank        comment           code
-------------------------------------------------------------------------------
C                                1              0              0              8
-------------------------------------------------------------------------------
