
http://cloc.sourceforge.net v 1.60  T=0.01 s (153.3 files/s, 6743.3 lines/s)
-------------------------------------------------------------------------------
Language                     files          blank        comment           code
-------------------------------------------------------------------------------
C                                1              8              0             36
-------------------------------------------------------------------------------
