/home/cfuria/misc/rosetta/RosettaCodeData/Task/Doubly-linked-list-Element-insertion/C/doubly-linked-list-element-insertion-2.c.compile/doubly-linked-list-element-insertion-2.c:1:1: error: unknown type name ‘link’
/home/cfuria/misc/rosetta/RosettaCodeData/Task/Doubly-linked-list-Element-insertion/C/doubly-linked-list-element-insertion-2.c.compile/doubly-linked-list-element-insertion-2.c:2:2: error: expected ‘=’, ‘,’, ‘;’, ‘asm’ or ‘__attribute__’ before ‘.’ token
/home/cfuria/misc/rosetta/RosettaCodeData/Task/Doubly-linked-list-Element-insertion/C/doubly-linked-list-element-insertion-2.c.compile/doubly-linked-list-element-insertion-2.c:3:2: error: expected ‘=’, ‘,’, ‘;’, ‘asm’ or ‘__attribute__’ before ‘.’ token
/home/cfuria/misc/rosetta/RosettaCodeData/Task/Doubly-linked-list-Element-insertion/C/doubly-linked-list-element-insertion-2.c.compile/doubly-linked-list-element-insertion-2.c:4:2: error: expected ‘=’, ‘,’, ‘;’, ‘asm’ or ‘__attribute__’ before ‘.’ token
/home/cfuria/misc/rosetta/RosettaCodeData/Task/Doubly-linked-list-Element-insertion/C/doubly-linked-list-element-insertion-2.c.compile/doubly-linked-list-element-insertion-2.c:5:2: error: expected ‘=’, ‘,’, ‘;’, ‘asm’ or ‘__attribute__’ before ‘.’ token
/home/cfuria/misc/rosetta/RosettaCodeData/Task/Doubly-linked-list-Element-insertion/C/doubly-linked-list-element-insertion-2.c.compile/doubly-linked-list-element-insertion-2.c:6:2: error: expected ‘=’, ‘,’, ‘;’, ‘asm’ or ‘__attribute__’ before ‘.’ token
/home/cfuria/misc/rosetta/RosettaCodeData/Task/Doubly-linked-list-Element-insertion/C/doubly-linked-list-element-insertion-2.c.compile/doubly-linked-list-element-insertion-2.c:7:2: error: expected ‘=’, ‘,’, ‘;’, ‘asm’ or ‘__attribute__’ before ‘.’ token
/home/cfuria/misc/rosetta/RosettaCodeData/Task/Doubly-linked-list-Element-insertion/C/doubly-linked-list-element-insertion-2.c.compile/doubly-linked-list-element-insertion-2.c:8:2: error: expected ‘=’, ‘,’, ‘;’, ‘asm’ or ‘__attribute__’ before ‘.’ token
