
http://cloc.sourceforge.net v 1.60  T=0.01 s (155.3 files/s, 5747.1 lines/s)
-------------------------------------------------------------------------------
Language                     files          blank        comment           code
-------------------------------------------------------------------------------
C                                1              6              0             31
-------------------------------------------------------------------------------
