
http://cloc.sourceforge.net v 1.60  T=0.01 s (142.6 files/s, 14403.6 lines/s)
-------------------------------------------------------------------------------
Language                     files          blank        comment           code
-------------------------------------------------------------------------------
C                                1             12              2             87
-------------------------------------------------------------------------------
