
http://cloc.sourceforge.net v 1.60  T=0.01 s (156.9 files/s, 3922.3 lines/s)
-------------------------------------------------------------------------------
Language                     files          blank        comment           code
-------------------------------------------------------------------------------
C                                1              6              0             19
-------------------------------------------------------------------------------
