
http://cloc.sourceforge.net v 1.60  T=0.01 s (153.3 files/s, 6131.1 lines/s)
-------------------------------------------------------------------------------
Language                     files          blank        comment           code
-------------------------------------------------------------------------------
C                                1              5              1             34
-------------------------------------------------------------------------------
