
http://cloc.sourceforge.net v 1.60  T=0.01 s (152.9 files/s, 4893.6 lines/s)
-------------------------------------------------------------------------------
Language                     files          blank        comment           code
-------------------------------------------------------------------------------
C                                1              2              0             30
-------------------------------------------------------------------------------
