
http://cloc.sourceforge.net v 1.60  T=0.01 s (154.2 files/s, 5244.4 lines/s)
-------------------------------------------------------------------------------
Language                     files          blank        comment           code
-------------------------------------------------------------------------------
C                                1              6              1             27
-------------------------------------------------------------------------------
