
http://cloc.sourceforge.net v 1.60  T=0.01 s (153.9 files/s, 5079.2 lines/s)
-------------------------------------------------------------------------------
Language                     files          blank        comment           code
-------------------------------------------------------------------------------
C                                1              3              0             30
-------------------------------------------------------------------------------
