
http://cloc.sourceforge.net v 1.60  T=0.01 s (154.1 files/s, 4621.8 lines/s)
-------------------------------------------------------------------------------
Language                     files          blank        comment           code
-------------------------------------------------------------------------------
C                                1              5              2             23
-------------------------------------------------------------------------------
