
http://cloc.sourceforge.net v 1.60  T=0.01 s (150.3 files/s, 9018.4 lines/s)
-------------------------------------------------------------------------------
Language                     files          blank        comment           code
-------------------------------------------------------------------------------
C                                1             13              6             41
-------------------------------------------------------------------------------
